20965 971491 525
66099 297763 443
906993 89872 525
460679 511415 444
182412 352784 443
660754 748610 504
152333 128190 375
792812 722551 468
36507 920054 525
26648 970352 525
979249 943618 458
920150 739171 525
632262 310033 509
133611 268188 443
117242 147488 375
447241 154324 449
799496 782216 468
535493 543921 408
902356 522723 525
719945 745542 424
806950 511913 509
619832 621779 372
802930 621097 509
900631 207013 525
855766 507817 525
888080 824315 525
854229 448418 525
107940 141749 349
463078 108009 449
898697 767353 525
968614 914452 507
600922 227058 470
863589 309083 525
994136 837896 507
957795 863235 507
627991 453094 509
420768 628465 509
167968 147019 383
521446 533515 408
473029 115050 449
889351 325360 525
310283 321964 384
144181 21185 375
639006 820727 504
709234 768880 468
600250 484493 470
925333 492733 525
967303 395489 525
33886 158387 383
457069 876742 525
664306 410240 509
608746 168378 470
23163 93588 351
90848 328940 443
888163 728140 525
893804 775699 525
939799 574796 525
495023 916838 525
90369 140314 354
984448 748014 525
303564 525757 470
28663 119744 354
480454 724654 509
306983 781862 509
863893 951419 507
146596 663335 509
577695 58491 470
3138 335778 443
519328 684967 509
684385 150206 509
969087 66922 525
922461 371102 525
406833 624188 470
53134 669448 509
997657 671281 525
791502 861688 525
843450 460872 525
145367 615913 470
347588 973663 525
427959 951816 525
686556 849850 525
783515 170771 509
165367 33727 383
899782 974149 507
600781 92541 470
42203 488502 449
424050 740409 509
131148 642098 509
782288 297120 509
504865 496317 426
447361 159181 449
78248 705896 509
743934 309013 509
719231 139839 509
894807 780767 525
328159 471654 449
104067 460789 449
87903 587421 470
129727 295796 443
494789 202698 449
587871 738599 509
750627 463895 509
301280 275666 389
850077 932344 476
661694 124129 509
574724 206269 470
863023 752195 525
842148 495117 525
948112 575176 525
506890 604418 470
429469 537772 470
763573 118972 509
971594 975960 383
400524 661898 509
388095 531438 470
75559 842581 525
328152 230335 443
954407 131908 525
630805 572460 509
93741 744635 509
259017 263775 407
956992 430294 525
898402 970537 507
144874 622808 470
688378 860752 525
919833 593624 525
423683 114396 449
990650 677097 525
369554 887149 525
228780 811638 509
514757 382560 470
176506 613411 470
110408 887049 525
117429 892142 525
119647 554613 470
199299 791040 509
560599 461100 470
290952 154755 443
183815 177027 365
991087 865130 507
852771 363953 525
954531 321971 525
821183 972980 525
613663 775002 509
662398 446655 509
659989 349869 509
236676 835526 509
851600 162841 525
454289 331691 449
108691 473710 449
25043 21529 282
120791 917432 525
834424 934179 525
610709 967822 525
850653 578319 525
414928 518947 470
537396 801685 509
793810 181367 509
303366 137930 443
306893 316674 384
819167 624553 509
362650 906076 525
293496 897456 525
797911 125503 509
978023 532905 525
941485 289402 525
728392 841104 525
832276 481727 509
370543 856312 525
273268 698438 509
277322 621006 470
235486 266099 407
398511 625790 470
515835 966432 525
693890 904204 525
458322 737280 509
438049 735443 509
630060 232905 509
553209 460440 470
219118 150990 386
387720 225214 443
864303 598438 525
507781 435383 444
719480 70619 509
530264 891403 525
907932 340923 525
993509 89337 525
160547 345646 443
132639 878601 525
427810 930172 525
119363 986734 525
820053 397649 509
178964 190939 365
608501 236806 470
912225 361452 525
811118 185198 509
174121 840822 525
83459 526821 470
412531 37565 449
6047 119185 354
357663 655456 509
181132 767225 509
526306 898784 525
255155 130220 443
915751 273504 525
907287 949710 507
109933 217174 386
793183 342538 509
996203 803166 525
283392 910640 525
631787 776945 504
350989 989398 525
521720 436586 470
61225 394407 443
770613 833726 468
272135 192756 443
496243 354329 449
371830 918750 525
682509 352730 509
341736 887351 525
887357 989833 507
751420 201977 509
