1 10 20
100 200 125
201 210 89
900 1000 174
571015 336942 470
694228 239077 509
279171 266781 407
518486 645860 509
78628 369208 443
544331 14734 470
818188 174310 509
823405 417904 509
827673 444141 509
731190 66815 509
287155 563027 470
417337 443407 418
534780 169046 470
629269 278199 509
6412 10683 260
75685 47949 340
374899 695845 509
50058 925729 525
358979 398570 436
608995 370774 470
363048 425002 449
341922 65866 443
838259 364647 525
381210 132244 443
383041 240209 441
585627 656217 509
913099 891361 476
331110 365879 441
756095 953906 525
184051 768037 509
401124 38590 443
293120 752033 509
836133 642188 504
776972 235458 509
526823 998908 525
516058 295636 470
573595 350821 470
608697 53862 470
623134 227632 470
617874 686030 509
247720 380813 441
547306 753892 509
599623 653780 509
745665 179465 509
395569 623443 470
438980 660790 509
212165 420773 449
241507 332287 407
332444 383571 441
265893 643452 509
609409 52127 470
113793 773079 509
724890 841610 525
360773 470889 449
906545 852650 445
599112 328300 470
628680 287508 509
289226 786830 509
945486 598034 525
605222 327515 470
989975 876298 507
246561 635453 509
260875 896727 525
410183 172059 449
219960 64301 386
864250 987916 507
955919 869265 507
950148 220013 525
395773 368479 436
976525 870219 507
608684 257081 470
119084 714773 509
131230 768590 509
231464 756463 509
309936 650596 509
976681 385683 525
849798 611914 525
892630 445320 525
602225 93683 470
8285 672530 509
313838 935719 525
640651 292611 509
772923 984185 525
658265 592090 509
226813 379276 443
264135 9212 443
686503 334487 509
257963 67221 443
881702 540412 525
656892 821427 504
258121 460617 449
267699 168912 443
968458 645431 525
412608 858063 525
899439 606337 525
593274 352488 470
227059 872408 525
695447 259186 509
710318 317542 509
284171 242723 407
822473 292850 509
180144 367269 443
518274 191721 470
403919 813430 509
732964 927277 525
580650 473871 470
338204 476247 449
555763 443570 470
442488 49225 449
383439 658617 509
83771 932648 525
742580 516700 509
975639 640032 525
446891 896386 525
325332 80449 443
771450 172896 509
634962 518972 509
119906 429903 449
365564 715268 509
531946 896735 525
10451 249906 443
997780 378146 525
81003 457081 449
366825 253112 441
58369 747821 509
857450 698413 525
729829 24809 509
609912 356034 470
823598 841591 525
850290 267730 525
74898 866911 525
807765 795334 468
37834 919125 525
220002 231211 443
334856 492197 449
649192 542078 509
882455 643030 525
665795 195292 509
840205 137134 525
98139 332384 443
470648 366083 449
620311 159704 470
564823 68 470
567649 999462 525
728557 839512 525
212688 404358 443
306313 860171 525
302709 880808 525
663289 81838 509
975034 160954 525
704441 453238 509
122870 795159 509
935914 489621 525
780478 680241 504
557002 135371 470
558473 896632 525
380988 113289 443
939968 748406 525
600677 647679 509
260446 391470 441
427069 513114 470
502954 623604 470
856424 462770 525
712878 970388 525
796832 132631 509
850370 655703 525
752081 868502 525
763293 570680 509
970037 302181 525
283819 394621 441
512533 154760 470
328794 666555 509
278216 562788 470
102230 679687 509
861782 990445 507
967793 542262 525
576803 278241 470
180491 619311 470
420686 163198 449
860994 806971 525
255923 809204 509
547269 176476 470
172208 244187 443
866534 579090 525
958544 896623 507
474821 604841 470
341029 814523 509
770622 796144 468
910446 116221 525
103099 308185 443
916771 294812 525
472505 636742 509
537467 979452 525
485147 426709 444
104187 219679 386
949462 890309 507
450353 691421 509
448663 589998 470
332137 332521 322
381003 785958 509
932297 680173 525
958779 32098 525
350306 441573 449
532232 403642 470
973901 169062 525
286702 728283 509
364858 11809 443
440666 941563 525
255967 391068 441
766044 890882 525
109661 924574 525
721955 411461 509
534910 26784 470
64676 655312 509
330280 300420 384
726558 234310 509
722883 23795 509
177612 976967 525
695066 165691 509
177793 553217 470
380693 247524 441
620331 455235 470
573125 456976 470
149756 179054 383
558193 528533 452
541367 740146 509
944778 322385 525
136579 140637 344
645304 539929 509
109070 626125 470
879060 350256 525
549398 588306 434
923148 335140 525
79766 455744 449
950741 915971 507
276243 555370 470
673817 47322 509
46686 142286 354
280609 802263 509
575336 80760 470
741019 867843 525
191903 493080 449
860206 728831 525
208872 574304 470
872387 241255 525
132092 184851 383
987342 10021 525
100672 606135 470
573918 884344 525
432427 599450 470
971526 506982 525
